3.852686658501625061e-02 1.536183503958454821e-06 1.126547658714116551e-06 4.709448665380477905e-03 3.381471708416938782e-02 2.149257838368612283e-08 2.037126023424207233e-08
1.051097424351610243e-04 5.527039684238843620e-05 1.147251623478950933e-05 1.161983959718781989e-06 1.952530328708235174e-05 7.724825081822928041e-06 9.954715096682775766e-06
8.378348138649016619e-05 4.830552279599942267e-05 1.158719260274665430e-05 1.182392338705540169e-06 1.145931582868797705e-05 3.521347935020457953e-06 7.727713636995758861e-06
7.483185618184506893e-05 4.245602031005546451e-05 1.295810761803295463e-05 1.263484591618180275e-06 8.763883670326322317e-06 3.252588157920399681e-06 6.137766376923536882e-06
6.845480675110593438e-05 3.763907443499192595e-05 1.380575849907472730e-05 1.144165821642673109e-06 7.172566256485879421e-06 3.303772018625750206e-06 5.389466423366684467e-06
6.428458436857908964e-05 3.461969754425808787e-05 1.456597055948805064e-05 1.084833911590976641e-06 5.890987267775926739e-06 3.278427357145119458e-06 4.844665909331524745e-06
6.034981197444722056e-05 3.159689367748796940e-05 1.472662006563041359e-05 9.053027838490379509e-07 5.209712981013581157e-06 3.350852239236701280e-06 4.560433353617554531e-06
6.682055391138419509e-05 3.017755989276338369e-05 1.569750020280480385e-05 4.545543106360128149e-06 9.706271157483570278e-06 3.198175363650079817e-06 3.495511691653518938e-06
5.523323488887399435e-05 2.801522896334063262e-05 1.527623135189060122e-05 7.978891289894818328e-07 3.990564891864778474e-06 3.288527068434632383e-06 3.864797690766863525e-06
5.261886326479725540e-05 2.581535409262869507e-05 1.537341631774324924e-05 6.929228675289778039e-07 3.648877054729382508e-06 3.361358039910555817e-06 3.726935801751096733e-06
5.360679278965108097e-05 2.624902299430686980e-05 1.614929897186812013e-05 1.459127929592796136e-06 3.982974703831132501e-06 2.933064479293534532e-06 2.833300641214009374e-06
4.998524673283100128e-05 2.418928670522291213e-05 1.561544195283204317e-05 6.833319616816879716e-07 3.058096126551390626e-06 3.231777554901782423e-06 3.207314875908195972e-06
4.803376214113086462e-05 2.238289198430720717e-05 1.560449891258031130e-05 6.390127396116440650e-07 2.989940412589930929e-06 3.290670292699360289e-06 3.126748879367369227e-06
5.649385275319218636e-05 2.329937524336855859e-05 1.684624294284731150e-05 8.299173259729286656e-07 3.302819095551967621e-06 3.142241666864720173e-06 9.073255569091998041e-06
4.671548595069907606e-05 2.182694879593327641e-05 1.565014827065169811e-05 6.764265663150581531e-07 2.704434791667154059e-06 3.107681095571024343e-06 2.749846089500351809e-06
4.510162398219108582e-05 2.022466833295766264e-05 1.554350274091120809e-05 6.554569154104683548e-07 2.773050255200359970e-06 3.173006462020566687e-06 2.731940867306548171e-06
1.743723260005936027e-04 2.163188946724403650e-05 1.752818570821546018e-05 1.915084794745780528e-06 1.610252184036653489e-05 5.746317128796363249e-06 1.114483238779939711e-04
4.488469130592420697e-05 2.064227192022372037e-05 1.551763125462457538e-05 7.184287369454978034e-07 2.652195689734071493e-06 2.933857103926129639e-06 2.420310693196370266e-06
4.339055158197879791e-05 1.905594581330660731e-05 1.537336538603994995e-05 6.903862868057331070e-07 2.740586751315277070e-06 3.029343815796892159e-06 2.500920118109206669e-06
4.231185448588803411e-05 1.800246172933839262e-05 1.519452325737802312e-05 6.781506272091064602e-07 2.738111334110726602e-06 3.090161726504447870e-06 2.608444674478960223e-06
4.461226490093395114e-05 2.067587047349661589e-05 1.555690323584713042e-05 9.385506700709811412e-07 2.559740323704318143e-06 2.587473773019155487e-06 2.293726538482587785e-06
4.261456342646852136e-05 1.872896064014639705e-05 1.522987440694123507e-05 7.301077289412205573e-07 2.717804818530566990e-06 2.863561576305073686e-06 2.344253516639582813e-06
4.138408621656708419e-05 1.757575410010758787e-05 1.503066960140131414e-05 7.312813750104396604e-07 2.768151716736610979e-06 2.910604735006927513e-06 2.367621846133260988e-06
2.726406964939087629e-04 1.922391857078764588e-05 1.684499693510588259e-05 6.038396350049879402e-06 6.652239972027018666e-05 8.622494533483404666e-06 1.553884940221905708e-04
4.176449874648824334e-05 1.826965126383583993e-05 1.512495509814471006e-05 7.772609365019889083e-07 2.627270305310958065e-06 2.716585640882840380e-06 2.248771352242329158e-06
4.045596870128065348e-05 1.693477133812848479e-05 1.493752643000334501e-05 7.654969067516503856e-07 2.719314579735510051e-06 2.810266551023232751e-06 2.288594487254158594e-06
4.388676097732968628e-05 1.687170879449695349e-05 1.529676956124603748e-05 1.293075342800875660e-06 4.704617822426371276e-06 3.161130052831140347e-06 2.559460881457198411e-06
1.204078318551182747e-03 1.672645521466620266e-05 1.629028156457934529e-05 1.260185817955061793e-04 8.411074522882699966e-04 3.405164170544594526e-05 1.698839332675561309e-04
4.011191413155756891e-05 1.712603079795371741e-05 1.476417037338251248e-05 8.012686407710134517e-07 2.655839807630400173e-06 2.628802349136094563e-06 2.135800514224683866e-06
3.886251579388044775e-05 1.594546301930677146e-05 1.451258322049397975e-05 7.864350664021912962e-07 2.634326847328338772e-06 2.724883870541816577e-06 2.258823315059999004e-06
4.100433579878881574e-05 1.803953637136146426e-05 1.499797053838847205e-05 1.000681550067383796e-06 2.631222287163836882e-06 2.363824705753359012e-06 1.971100346054299735e-06
3.910391387762501836e-05 1.627703022677451372e-05 1.460197199776303023e-05 7.980511895766539965e-07 2.560406301199691370e-06 2.618575308588333428e-06 2.247874363092705607e-06
3.984697104897350073e-05 1.518920726084616035e-05 1.485230495745781809e-05 1.060005729414115194e-06 3.495166538414196111e-06 3.065715191041817889e-06 2.184573986596660689e-06
3.914162152796052396e-05 1.627473830012604594e-05 1.454675384593429044e-05 9.063337529369164258e-07 2.923549800470937043e-06 2.524047431506915018e-06 1.966199079106445424e-06
3.904937329934909940e-05 1.516128486400702968e-05 1.420797343598678708e-05 8.938715723161294591e-07 3.241877038817619905e-06 2.779807346087181941e-06 2.764561259027686901e-06
3.906789788743481040e-05 1.676357715041376650e-05 1.430501015420304611e-05 8.670132842780731153e-07 2.389676410530228168e-06 2.432869905533152632e-06 2.309752062501502223e-06
3.747242590179666877e-05 1.530047120468225330e-05 1.404846898367395625e-05 8.447265145150595345e-07 2.479923523424076848e-06 2.555891796873765998e-06 2.242945811303798109e-06
2.655822318047285080e-04 1.500890539318788797e-05 1.444566169084282592e-05 4.080844882992096245e-05 1.625961303943768144e-04 1.022506967274239287e-05 2.249800854770001024e-05
3.697596548590809107e-05 1.504140072938753292e-05 1.400135897711152211e-05 8.000422440090915188e-07 2.358064421059680171e-06 2.554672846599714831e-06 2.220424448751145974e-06
5.403012983151711524e-05 1.684467133600264788e-05 1.434438399883219972e-05 1.096120513466303237e-06 2.169333356505376287e-06 2.528395953049766831e-06 1.704722672002390027e-05
3.685659612528979778e-05 1.515903113613603637e-05 1.384193819831125438e-05 8.338743100466672331e-07 2.322821501365979202e-06 2.458570861563202925e-06 2.240360572614008561e-06
1.804471365176141262e-03 1.453470486012520269e-05 1.534891453047748655e-05 4.563416223390959203e-05 1.450498588383197784e-03 1.584725396241992712e-05 2.626077039167284966e-04
3.700227534864097834e-05 1.507865090388804674e-05 1.418511055817361921e-05 7.808366149220091756e-07 2.221542899860651232e-06 2.490418637535185553e-06 2.245716132165398449e-06
1.566488645039498806e-03 1.504487954662181437e-05 1.450000945624196902e-05 8.436916978098452091e-04 4.190236795693635941e-04 1.962433743756264448e-04 7.798498700140044093e-05
3.613995431805960834e-05 1.481500839872751385e-05 1.357027031190227717e-05 8.207184123421029653e-07 2.165507567042368464e-06 2.448152827128069475e-06 2.320295834579155780e-06
3.501501123537309468e-05 1.395401977788424119e-05 1.318754584644921124e-05 8.378273150810855441e-07 2.213780589954694733e-06 2.505327529433998279e-06 2.316512791367131285e-06
3.725716305780224502e-05 1.577695184096228331e-05 1.368648190691601485e-05 9.021439950629428495e-07 2.194791250076377764e-06 2.264324848511023447e-06 2.432468136248644441e-06
3.527993249008432031e-05 1.418541432940401137e-05 1.338123729510698467e-05 8.352519103027589153e-07 2.157015387638239190e-06 2.434465613987413235e-06 2.286545850438415073e-06
1.603224431164562702e-03 1.329620954493293539e-05 1.270367738470667973e-05 4.963119281455874443e-04 8.718164172023534775e-04 9.703000978333875537e-05 1.120661399909295142e-04
3.522828046698123217e-05 1.478552348999073729e-05 1.290766067540971562e-05 8.297886324726277962e-07 2.121808392985258251e-06 2.337527348572621122e-06 2.245971018055570312e-06
1.635668304516002536e-04 1.389010685670655221e-05 1.211549897561781108e-05 1.305939917983778287e-06 1.160432511824183166e-04 2.763454631349304691e-06 1.744857036101166159e-05
2.369868343521375209e-05 1.002612953016068786e-05 6.791976829845225438e-06 1.462257046114245895e-06 1.431465989298885688e-06 1.902096528283436783e-06 2.084756488329730928e-06
1.716039514576550573e-05 5.632199645333457738e-06 6.279179160628700629e-06 5.333124590833904222e-07 8.477114761262782849e-07 2.092340764647815377e-06 1.775651867319538724e-06
1.279139632970327511e-05 3.977816959377378225e-06 4.313041245040949434e-06 8.853996291691146325e-07 5.411827714851824567e-07 1.425575874236528762e-06 1.648380134611215908e-06
1.056963174050906673e-05 2.563259158705477603e-06 4.030826403322862461e-06 6.198773689902736805e-07 4.970012241756194271e-07 1.422523496330541093e-06 1.436143406863266136e-06
8.214264198613818735e-06 2.151185071852523834e-06 2.645713493620860390e-06 4.210313306884927442e-07 5.358741645977715962e-07 1.253766072295547929e-06 1.206693696076399647e-06
6.410187779692932963e-06 1.330571194557705894e-06 2.013554421864682809e-06 3.092585529884672724e-07 5.237477580521954224e-07 1.138673951572855003e-06 1.094381104849162512e-06
5.597300514637026936e-06 1.407790932717034593e-06 1.223634058078459930e-06 3.052793999813729897e-07 4.377342008865525713e-07 1.136696369030687492e-06 1.086165184460696764e-06
5.066397989139659330e-06 1.077298634299950209e-06 1.225364371748582926e-06 2.897425588344049174e-07 4.222316078994481359e-07 1.039765720634022728e-06 1.011995323096925858e-06
4.883224391960538924e-06 9.978384696296416223e-07 1.113110670303285588e-06 3.191071584751625778e-07 3.535960502176749287e-07 1.026012796501163393e-06 1.073559133146773092e-06
4.883224391960538924e-06 9.978384696296416223e-07 1.113110670303285588e-06 3.191071584751625778e-07 3.535960502176749287e-07 1.026012796501163393e-06 1.073559133146773092e-06
4.883224391960538924e-06 9.978384696296416223e-07 1.113110670303285588e-06 3.191071584751625778e-07 3.535960502176749287e-07 1.026012796501163393e-06 1.073559133146773092e-06
4.883224391960538924e-06 9.978384696296416223e-07 1.113110670303285588e-06 3.191071584751625778e-07 3.535960502176749287e-07 1.026012796501163393e-06 1.073559133146773092e-06
4.883224391960538924e-06 9.978384696296416223e-07 1.113110670303285588e-06 3.191071584751625778e-07 3.535960502176749287e-07 1.026012796501163393e-06 1.073559133146773092e-06
4.883224391960538924e-06 9.978384696296416223e-07 1.113110670303285588e-06 3.191071584751625778e-07 3.535960502176749287e-07 1.026012796501163393e-06 1.073559133146773092e-06
4.883224391960538924e-06 9.978384696296416223e-07 1.113110670303285588e-06 3.191071584751625778e-07 3.535960502176749287e-07 1.026012796501163393e-06 1.073559133146773092e-06
4.883224391960538924e-06 9.978384696296416223e-07 1.113110670303285588e-06 3.191071584751625778e-07 3.535960502176749287e-07 1.026012796501163393e-06 1.073559133146773092e-06
4.883224391960538924e-06 9.978384696296416223e-07 1.113110670303285588e-06 3.191071584751625778e-07 3.535960502176749287e-07 1.026012796501163393e-06 1.073559133146773092e-06
4.883224391960538924e-06 9.978384696296416223e-07 1.113110670303285588e-06 3.191071584751625778e-07 3.535960502176749287e-07 1.026012796501163393e-06 1.073559133146773092e-06
4.883224391960538924e-06 9.978384696296416223e-07 1.113110670303285588e-06 3.191071584751625778e-07 3.535960502176749287e-07 1.026012796501163393e-06 1.073559133146773092e-06
4.883224391960538924e-06 9.978384696296416223e-07 1.113110670303285588e-06 3.191071584751625778e-07 3.535960502176749287e-07 1.026012796501163393e-06 1.073559133146773092e-06
