7.296772253084782278e-08 4.024053623652434908e-08 2.809107435552959942e-08 0.000000000000000000e+00 0.000000000000000000e+00 1.665635074310500841e-09 2.970480972308564560e-09
3.280522093973559095e-07 6.835952603978512343e-08 7.092763354421549593e-08 0.000000000000000000e+00 0.000000000000000000e+00 5.663299873504001880e-08 1.321320581837426289e-07
1.333304595618756139e-07 5.708763950451611890e-08 4.402266284841971355e-08 0.000000000000000000e+00 0.000000000000000000e+00 1.485899936426449131e-08 1.736116495010264771e-08
9.440729797915992094e-08 5.033604111304157414e-08 3.458237429754262848e-08 0.000000000000000000e+00 0.000000000000000000e+00 4.847827916876212839e-09 4.641058648502394135e-09
4.524279617612592119e-08 2.442353519427342690e-08 1.811900673942545836e-08 0.000000000000000000e+00 0.000000000000000000e+00 7.032280313623573420e-10 1.997027210265400754e-09
4.523753460716761765e-08 2.442313906669824064e-08 1.811895167236343696e-08 0.000000000000000000e+00 0.000000000000000000e+00 7.014009373307317219e-10 1.994044040998232958e-09
4.523753460716761765e-08 2.442313906669824064e-08 1.811895167236343696e-08 0.000000000000000000e+00 0.000000000000000000e+00 7.014009373307317219e-10 1.994044040998232958e-09
