4.401003650400525657e-07 2.121032878221740248e-07 2.124896383293162216e-07 0.000000000000000000e+00 0.000000000000000000e+00 8.552411223661238182e-09 6.955013898135575801e-09
6.167351784824859351e-07 2.502802374237944605e-07 2.204257896210037870e-07 0.000000000000000000e+00 0.000000000000000000e+00 1.639489433102880866e-08 1.296342304613062879e-07
4.479880715280160075e-07 2.226322948217784869e-07 2.095585927008869476e-07 0.000000000000000000e+00 0.000000000000000000e+00 5.168107719555337098e-09 1.062905852222684189e-08
4.238836481817997992e-07 2.063391235651579336e-07 2.054326131428751978e-07 0.000000000000000000e+00 0.000000000000000000e+00 4.180439550083292488e-09 7.931464374166807829e-09
3.112323554432805395e-07 1.381048519988326007e-07 1.660512083390131011e-07 0.000000000000000000e+00 0.000000000000000000e+00 3.440985718583533526e-09 3.635320711126155402e-09
2.538357932735380018e-07 1.185537001902048360e-07 1.263498177195288008e-07 0.000000000000000000e+00 0.000000000000000000e+00 3.968320783087619930e-09 4.963952804359905713e-09
2.327953154690476367e-07 1.011976991094343248e-07 1.263416180563581293e-07 0.000000000000000000e+00 0.000000000000000000e+00 2.849815272654154796e-09 2.406176591307485069e-09
