1.941794471349567175e-04 5.407643470789480489e-07 4.695268671639496461e-07 1.203026622533798218e-04 7.282499427674338222e-05 1.843610064611311827e-08 2.306273216845511342e-08
8.320127562910784036e-06 1.954726485564606264e-06 1.854981746873818338e-06 1.323009200859814882e-06 4.744102568565722322e-07 1.880724425973312464e-06 8.322753046741127037e-07
3.742589797184336931e-06 9.780408163351239637e-07 1.236847424479492474e-06 3.080621979734132765e-07 5.279180754769186024e-07 3.852121892577997642e-07 3.065091505050077103e-07
2.890829136958927847e-06 7.606535632476152387e-07 1.039514245348982513e-06 1.916296241688542068e-07 4.606993400102510350e-07 1.933403126486155088e-07 2.449919804803357692e-07
1.986261631827801466e-04 6.865861337246315088e-07 9.478433184995083138e-07 4.445071317604742944e-05 1.048842095769941807e-04 1.488056386733660474e-05 3.277623181929811835e-05
1.694568368293403182e-06 6.362847102536761668e-07 8.830213573673972860e-07 8.948565444200085039e-09 2.424318168436911947e-08 4.245714890771523642e-08 9.961338776065531420e-08
1.080663537322834600e-06 4.740775239042704925e-07 5.610869493466452695e-07 6.364674121073221613e-09 4.057355784681249133e-09 1.364758883681815860e-08 2.142954080852632615e-08
1.080663537322834600e-06 4.740775239042704925e-07 5.610869493466452695e-07 6.364674121073221613e-09 4.057355784681249133e-09 1.364758883681815860e-08 2.142954080852632615e-08
1.080663537322834600e-06 4.740775239042704925e-07 5.610869493466452695e-07 6.364674121073221613e-09 4.057355784681249133e-09 1.364758883681815860e-08 2.142954080852632615e-08
1.080663537322834600e-06 4.740775239042704925e-07 5.610869493466452695e-07 6.364674121073221613e-09 4.057355784681249133e-09 1.364758883681815860e-08 2.142954080852632615e-08
1.080663537322834600e-06 4.740775239042704925e-07 5.610869493466452695e-07 6.364674121073221613e-09 4.057355784681249133e-09 1.364758883681815860e-08 2.142954080852632615e-08
